1.vcd
$date
	Tue Sep 23 19:45:50 2025
$end
$version
	QuestaSim Version 10.7c
$end
$timescale
	1ns
$end

$scope module uvm_root $end
$upscope $end

$scope module top $end
$var reg 1 ! w_clk $end
$var reg 1 " r_clk $end
$var reg 1 # rst $end

$scope module dut $end
$var parameter 32 $ WIDTH $end
$var parameter 32 % FIFO_SIZE $end
$var parameter 32 & PTR_WIDTH $end
$var wire 1 ' w_clk $end
$var wire 1 ( r_clk $end
$var wire 1 ) rst $end
$var wire 1 * wr_en $end
$var wire 1 + rd_en $end
$var wire 1 , wdata [15] $end
$var wire 1 - wdata [14] $end
$var wire 1 . wdata [13] $end
$var wire 1 / wdata [12] $end
$var wire 1 0 wdata [11] $end
$var wire 1 1 wdata [10] $end
$var wire 1 2 wdata [9] $end
$var wire 1 3 wdata [8] $end
$var wire 1 4 wdata [7] $end
$var wire 1 5 wdata [6] $end
$var wire 1 6 wdata [5] $end
$var wire 1 7 wdata [4] $end
$var wire 1 8 wdata [3] $end
$var wire 1 9 wdata [2] $end
$var wire 1 : wdata [1] $end
$var wire 1 ; wdata [0] $end
$var reg 1 < full $end
$var reg 1 = overflow $end
$var reg 1 > empty $end
$var reg 1 ? underflow $end
$var reg 16 @ rdata [15:0] $end
$var reg 1 A wr_toggle_f $end
$var reg 1 B rd_toggle_f $end
$var reg 1 C wr_toggle_f_rd_clk $end
$var reg 1 D rd_toggle_f_wr_clk $end
$var reg 4 E wr_ptr [3:0] $end
$var reg 4 F rd_ptr [3:0] $end
$var reg 4 G wr_ptr_rd_clk [3:0] $end
$var reg 4 H rd_ptr_wr_clk [3:0] $end
$var integer 32 I i $end
$upscope $end
$upscope $end

$scope begin uvm_pkg $end
$var parameter 32 J UVM_HDL_MAX_WIDTH $end
$var parameter 32 K UVM_STREAMBITS $end
$var parameter 32 L UVM_RADIX $end
$var parameter 32 M UVM_MACRO_NUMFLAGS $end
$var parameter 32 N UVM_DEFAULT $end
$var parameter 32 O UVM_ALL_ON $end
$var parameter 32 P UVM_FLAGS_ON $end
$var parameter 32 Q UVM_FLAGS_OFF $end
$var parameter 32 R UVM_COPY $end
$var parameter 32 S UVM_NOCOPY $end
$var parameter 32 T UVM_COMPARE $end
$var parameter 32 U UVM_NOCOMPARE $end
$var parameter 32 V UVM_PRINT $end
$var parameter 32 W UVM_NOPRINT $end
$var parameter 32 X UVM_RECORD $end
$var parameter 32 Y UVM_NORECORD $end
$var parameter 32 Z UVM_PACK $end
$var parameter 32 [ UVM_NOPACK $end
$var parameter 32 \ UVM_PHYSICAL $end
$var parameter 32 ] UVM_ABSTRACT $end
$var parameter 32 ^ UVM_READONLY $end
$var parameter 32 _ UVM_NODEFPRINT $end
$var parameter 32 ` UVM_MACRO_EXTRAS $end
$var parameter 32 a UVM_FLAGS $end
$var parameter 32 b UVM_UNPACK $end
$var parameter 32 c UVM_CHECK_FIELDS $end
$var parameter 32 d UVM_END_DATA_EXTRA $end
$var parameter 32 e UVM_START_FUNCS $end
$var parameter 32 f UVM_SET $end
$var parameter 32 g UVM_SETINT $end
$var parameter 32 h UVM_SETOBJ $end
$var parameter 32 i UVM_SETSTR $end
$var parameter 32 j UVM_END_FUNCS $end
$var parameter 32 k UVM_STR_CRC_POLYNOMIAL $end
$var parameter 32 l UVM_STDOUT $end
$var parameter 32 m UVM_LINE_WIDTH $end
$var parameter 32 n UVM_NUM_LINES $end
$var parameter 32 o UVM_SMALL_STRING $end
$var parameter 32 p UVM_LARGE_STRING $end
$var reg 1 q uvm_start_uvm_declarations $end
$var integer 32 r uvm_global_random_seed $end
$var integer 32 s UVM_UNBOUNDED_CONNECTIONS $end

$scope function uvm_hdl_check_path $end
$var integer 32 t uvm_hdl_check_path $end
$upscope $end

$scope function uvm_hdl_deposit $end
$var integer 32 u uvm_hdl_deposit $end
$var reg 1024 v value [1023:0] $end
$upscope $end

$scope function uvm_hdl_force $end
$var integer 32 w uvm_hdl_force $end
$var reg 1024 x value [1023:0] $end
$upscope $end

$scope task uvm_hdl_force_time $end
$var reg 1024 y value [1023:0] $end
$var time 64 z force_time $end
$upscope $end

$scope function uvm_hdl_release_and_read $end
$var integer 32 { uvm_hdl_release_and_read $end
$var reg 1024 | value [1023:0] $end
$upscope $end

$scope function uvm_hdl_release $end
$var integer 32 } uvm_hdl_release $end
$upscope $end

$scope function uvm_hdl_read $end
$var integer 32 ~ uvm_hdl_read $end
$var reg 1024 !! value [1023:0] $end
$upscope $end

$scope function uvm_dpi_get_next_arg_c $end
$var integer 32 "! init $end
$upscope $end

$scope function uvm_dpi_get_tool_name_c $end
$upscope $end

$scope function uvm_dpi_get_tool_version_c $end
$upscope $end

$scope function uvm_dpi_get_next_arg $end
$var integer 32 #! init $end
$upscope $end

$scope function uvm_dpi_get_tool_name $end
$upscope $end

$scope function uvm_dpi_get_tool_version $end
$upscope $end

$scope function uvm_dpi_regcomp $end
$upscope $end

$scope function uvm_dpi_regexec $end
$var integer 32 $! uvm_dpi_regexec $end
$upscope $end

$scope function uvm_dpi_regfree $end
$upscope $end

$scope function uvm_re_match $end
$var integer 32 %! uvm_re_match $end
$upscope $end

$scope function uvm_dump_re_cache $end
$upscope $end

$scope function uvm_glob_to_re $end
$upscope $end

$scope function uvm_revision_string $end
$upscope $end

$scope function uvm_radix_to_string $end
$var integer 32 &! radix $end
$upscope $end

$scope function uvm_instance_scope $end
$var reg 8 '! c [7:0] $end
$var integer 32 (! pos $end
$upscope $end

$scope function uvm_oneway_hash $end
$var integer 32 )! uvm_oneway_hash $end
$var integer 32 *! seed $end
$var reg 1 +! msb $end
$var reg 8 ,! current_byte [7:0] $end
$var reg 32 -! crc1 [31:0] $end
$upscope $end

$scope function uvm_create_random_seed $end
$var integer 32 .! uvm_create_random_seed $end
$upscope $end

$scope function uvm_object_value_str $end
$upscope $end

$scope function uvm_leaf_scope $end
$var reg 8 /! scope_separator [7:0] $end
$var reg 8 0! bracket_match [7:0] $end
$var integer 32 1! pos $end
$var integer 32 2! bmatches $end
$upscope $end

$scope function uvm_bitstream_to_string $end
$var reg 4096 3! value [4095:0] $end
$var integer 32 4! size $end
$var integer 32 5! radix $end
$upscope $end

$scope function uvm_integral_to_string $end
$var reg 64 6! value [63:0] $end
$var integer 32 7! size $end
$var integer 32 8! radix $end
$upscope $end

$scope function uvm_vector_to_string $end
$var reg 4096 9! value [4095:0] $end
$var integer 32 :! size $end
$var integer 32 ;! radix $end
$upscope $end

$scope function uvm_get_array_index_int $end
$var integer 32 <! uvm_get_array_index_int $end
$var reg 1 =! is_wildcard $end
$var integer 32 >! i $end
$upscope $end

$scope function uvm_get_array_index_string $end
$var reg 1 ?! is_wildcard $end
$var integer 32 @! i $end
$upscope $end

$scope function uvm_is_array $end
$var reg 1 A! uvm_is_array $end
$upscope $end

$scope function uvm_has_wildcard $end
$upscope $end

$scope function m_uvm_string_queue_join $end
$upscope $end

$scope task run_test $end
$upscope $end

$scope function global_stop_request $end
$upscope $end

$scope function set_global_timeout $end
$var time 64 B! timeout $end
$var reg 1 C! overridable $end
$upscope $end

$scope function set_global_stop_timeout $end
$var time 64 D! timeout $end
$upscope $end

$scope function uvm_get_report_object $end
$upscope $end

$scope function uvm_report_enabled $end
$var integer 32 E! uvm_report_enabled $end
$var integer 32 F! verbosity $end
$var reg 2 G! severity [1:0] $end
$upscope $end

$scope function uvm_report $end
$var reg 2 H! severity [1:0] $end
$var integer 32 I! verbosity $end
$var integer 32 J! line $end
$var reg 1 K! report_enabled_checked $end
$upscope $end

$scope function m__uvm_report_dpi $end
$var integer 32 L! severity $end
$var integer 32 M! verbosity $end
$var integer 32 N! line $end
$upscope $end

$scope function uvm_report_info $end
$var integer 32 O! verbosity $end
$var integer 32 P! line $end
$var reg 1 Q! report_enabled_checked $end
$upscope $end

$scope function uvm_report_warning $end
$var integer 32 R! verbosity $end
$var integer 32 S! line $end
$var reg 1 T! report_enabled_checked $end
$upscope $end

$scope function uvm_report_error $end
$var integer 32 U! verbosity $end
$var integer 32 V! line $end
$var reg 1 W! report_enabled_checked $end
$upscope $end

$scope function uvm_report_fatal $end
$var integer 32 X! verbosity $end
$var integer 32 Y! line $end
$var reg 1 Z! report_enabled_checked $end
$upscope $end

$scope function uvm_process_report_message $end
$upscope $end

$scope function uvm_string_to_severity $end
$var reg 1 [! uvm_string_to_severity $end
$var reg 2 \! sev [1:0] $end
$upscope $end

$scope function uvm_string_to_action $end
$upscope $end

$scope function set_config_int $end
$var reg 4096 ]! value [4095:0] $end
$upscope $end

$scope function set_config_object $end
$var reg 1 ^! clone $end
$upscope $end

$scope function set_config_string $end
$upscope $end

$scope function uvm_is_match $end
$var reg 1 _! uvm_is_match $end
$upscope $end

$scope function uvm_string_to_bits $end
$var reg 115200 `! uvm_string_to_bits [115199:0] $end
$upscope $end

$scope function uvm_bits_to_string $end
$var reg 115200 a! str [115199:0] $end
$upscope $end

$scope task uvm_wait_for_nba_region $end
$var integer 32 b! nba $end
$var integer 32 c! next_nba $end
$upscope $end

$scope function uvm_split_string $end
$upscope $end

$scope function uvm_hdl_concat2string $end
$upscope $end
$upscope $end

$scope begin top_sv_unit $end
$var integer 32 d! num_matches $end
$var integer 32 e! num_mis_matches $end
$upscope $end

$scope begin std $end
$upscope $end
$enddefinitions $end
#0
$dumpvars
0?!
0A!
0[!
b0 \!
bx `!
bx a!
bx v
bx x
bx y
bx |
bx !!
1q
1+!
b1110001 ,!
b10101100101101001010100111110001 -!
bx 3!
b1 6!
bx 9!
0=!
0C!
b0 G!
b0 H!
0K!
0Q!
0T!
0W!
0Z!
bx ]!
0^!
0_!
0!
0"
1#
x<
x=
x>
x?
bx @
xA
xB
xC
xD
bx E
bx F
bx G
bx H
b10000000000 J
b1000000000000 K
b1111000000000000000000000000 L
b10001 M
b10101010101 N
b101010101 O
b101010101 P
b0 Q
b1 R
b10 S
b100 T
b1000 U
b10000 V
b100000 W
b1000000 X
b10000000 Y
b100000000 Z
b1000000000 [
b10000000000000 \
b100000000000000 ]
b1000000000000000 ^
b10000000000000000 _
b100000000000000000 `
b100000000000000001 a
b100000000000000010 b
b100000000000000011 c
b100000000000000100 d
b100000000000000101 e
b100000000000000110 f
b100000000000000110 g
b100000000000000111 h
b100000000000001000 i
b100000000000001000 j
b100110000010001110110110110 k
b1 l
b1111000 m
b1111000 n
b1110111111 o
b11100000111111111 p
b10000 $
b10000 %
b100 &
b0 &!
b101110 /!
b0 0!
b11010 1!
b11111111111111111111111111111111 2!
b0 @!
b0 t
b0 u
b0 w
b0 {
b0 }
b0 ~
b0 "!
b0 #!
b0 $!
b0 %!
b10101111111110001010110000110 r
b101110 '!
b111 (!
b100100010101010110000011011001 )!
b10101111111110001010110000110 *!
b10111111111001011000010111001111 .!
b0 4!
b0 5!
b100000 7!
b10000000000000000000000000 8!
b0 :!
b0 ;!
b0 <!
b0 >!
b0 E!
b111110100 F!
b0 I!
b0 J!
b0 L!
b0 M!
b0 N!
b0 O!
b0 P!
b0 R!
b0 S!
b0 U!
b0 V!
b0 X!
b0 Y!
b100100 b!
b100100 c!
b11111111111111111111111111111111 s
b0 d!
b0 e!
bx I
bx z
bx B!
bx D!
0'
0(
1)
0*
0;
0:
09
08
07
06
05
04
03
02
01
00
0/
0.
0-
0,
0+
$end
#5
1"
1(
#7
1!
1'
0<
1>
0=
0?
0A
0B
0C
0D
b0 @
b0 E
b0 F
b0 G
b0 H
b0 I
b1 I
b10 I
b11 I
b100 I
b101 I
b110 I
b111 I
b1000 I
b1001 I
b1010 I
b1011 I
b1100 I
b1101 I
b1110 I
b1111 I
b10000 I
#10
0"
0(
#14
0!
0'
#15
1"
1(
#20
0"
0(
#21
1!
1'
b0 I
b1 I
b10 I
b11 I
b100 I
b101 I
b110 I
b111 I
b1000 I
b1001 I
b1010 I
b1011 I
b1100 I
b1101 I
b1110 I
b1111 I
b10000 I
0#
0)
b100101 c!
b100101 b!
#22
1*
1;
19
18
17
16
15
13
12
1/
1.
1,
#25
1"
1(
#28
0!
0'
#30
0"
0(
#35
1!
1"
1(
1'
b1 E
b1 G
0>
b0 2!
b100 1!
b11 1!
b10 1!
b1 1!
b0 1!
b1 7!
b111000000000000000000000000 8!
b1010 1!
b1001 1!
b1000 1!
b111 1!
b110 1!
b101 1!
b11111111111111111111111111111111 2!
b0 6!
b0 2!
b1010 1!
b1001 1!
b1000 1!
b111 1!
b110 1!
b101 1!
b11111111111111111111111111111111 2!
b1011001101111101 6!
b10000 7!
b0 2!
b1010 1!
b1001 1!
b1000 1!
b111 1!
b110 1!
b101 1!
b11111111111111111111111111111111 2!
b0 6!
b0 2!
b1010 1!
b1001 1!
b1000 1!
b111 1!
b110 1!
b101 1!
b11111111111111111111111111111111 2!
b1 7!
b0 2!
b1001 1!
b1000 1!
b111 1!
b110 1!
b101 1!
b11111111111111111111111111111111 2!
b0 2!
b1010 1!
b1001 1!
b1000 1!
b111 1!
b110 1!
b101 1!
b11111111111111111111111111111111 2!
b0 2!
b1101 1!
b1100 1!
b1011 1!
b1010 1!
b1001 1!
b1000 1!
b111 1!
b110 1!
b101 1!
b11111111111111111111111111111111 2!
b0 2!
b1110 1!
b1101 1!
b1100 1!
b1011 1!
b1010 1!
b1001 1!
b1000 1!
b111 1!
b110 1!
b101 1!
b11111111111111111111111111111111 2!
b0 2!
b100 1!
b11 1!
b10 1!
b1 1!
b0 1!
b1 6!
b1010 1!
b1001 1!
b1000 1!
b111 1!
b110 1!
b101 1!
b11111111111111111111111111111111 2!
b0 6!
b0 2!
b1010 1!
b1001 1!
b1000 1!
b111 1!
b110 1!
b101 1!
b11111111111111111111111111111111 2!
b1011001101111101 6!
b10000 7!
b0 2!
b1010 1!
b1001 1!
b1000 1!
b111 1!
b110 1!
b101 1!
b11111111111111111111111111111111 2!
b0 6!
b0 2!
b1010 1!
b1001 1!
b1000 1!
b111 1!
b110 1!
b101 1!
b11111111111111111111111111111111 2!
b1 7!
b0 2!
b1001 1!
b1000 1!
b111 1!
b110 1!
b101 1!
b11111111111111111111111111111111 2!
b0 2!
b1010 1!
b1001 1!
b1000 1!
b111 1!
b110 1!
b101 1!
b11111111111111111111111111111111 2!
b0 2!
b1101 1!
b1100 1!
b1011 1!
b1010 1!
b1001 1!
b1000 1!
b111 1!
b110 1!
b101 1!
b11111111111111111111111111111111 2!
b0 2!
b1110 1!
b1101 1!
b1100 1!
b1011 1!
b1010 1!
b1001 1!
b1000 1!
b111 1!
b110 1!
b101 1!
b11111111111111111111111111111111 2!
#40
0"
0(
#42
0!
0'
#45
1"
1(
#49
1!
1'
b10 E
b0 2!
b10 1!
b1 1!
b0 1!
b1 6!
b1000 1!
b111 1!
b110 1!
b101 1!
b100 1!
b11 1!
b11111111111111111111111111111111 2!
b0 6!
b0 2!
b1000 1!
b111 1!
b110 1!
b101 1!
b100 1!
b11 1!
b11111111111111111111111111111111 2!
b1011001101111101 6!
b10000 7!
b0 2!
b1000 1!
b111 1!
b110 1!
b101 1!
b100 1!
b11 1!
b11111111111111111111111111111111 2!
b0 6!
b0 2!
b1000 1!
b111 1!
b110 1!
b101 1!
b100 1!
b11 1!
b11111111111111111111111111111111 2!
b1 7!
b0 2!
b111 1!
b110 1!
b101 1!
b100 1!
b11 1!
b11111111111111111111111111111111 2!
b0 2!
b1000 1!
b111 1!
b110 1!
b101 1!
b100 1!
b11 1!
b11111111111111111111111111111111 2!
b0 2!
b1011 1!
b1010 1!
b1001 1!
b1000 1!
b111 1!
b110 1!
b101 1!
b100 1!
b11 1!
b11111111111111111111111111111111 2!
b0 2!
b1100 1!
b1011 1!
b1010 1!
b1001 1!
b1000 1!
b111 1!
b110 1!
b101 1!
b100 1!
b11 1!
b11111111111111111111111111111111 2!
b10101 6!
b1000000 7!
b1001000000000000000000000000 8!
b0 2!
b1101 1!
b1100 1!
b1011 1!
b1010 1!
b1001 1!
b1000 1!
b111 1!
b110 1!
b101 1!
b100 1!
b11 1!
b11111111111111111111111111111111 2!
b10 6!
b100000 7!
b10000000000000000000000000 8!
b0 2!
b1000 1!
b111 1!
b110 1!
b101 1!
b100 1!
b11 1!
b11111111111111111111111111111111 2!
b0 2!
b11001 1!
b11000 1!
b10111 1!
b10110 1!
b10101 1!
b10100 1!
b10011 1!
b10010 1!
b10001 1!
b10000 1!
b1111 1!
b1110 1!
b1101 1!
b1100 1!
b1011 1!
b1010 1!
b1001 1!
b1000 1!
b111 1!
b110 1!
b101 1!
b100 1!
b11 1!
b11111111111111111111111111111111 2!
b0 2!
b11110 1!
b11101 1!
b11100 1!
b11011 1!
b11010 1!
b11001 1!
b11000 1!
b10111 1!
b10110 1!
b10101 1!
b10100 1!
b10011 1!
b10010 1!
b10001 1!
b10000 1!
b1111 1!
b1110 1!
b1101 1!
b1100 1!
b1011 1!
b1010 1!
b1001 1!
b1000 1!
b111 1!
b110 1!
b101 1!
b100 1!
b11 1!
b11111111111111111111111111111111 2!
b0 2!
b1100 1!
b1011 1!
b1010 1!
b1001 1!
b1000 1!
b111 1!
b110 1!
b101 1!
b100 1!
b11 1!
b11111111111111111111111111111111 2!
b100110 c!
b0 2!
b100 1!
b11 1!
b10 1!
b1 1!
b0 1!
b1 6!
b1 7!
b111000000000000000000000000 8!
b1010 1!
b1001 1!
b1000 1!
b111 1!
b110 1!
b101 1!
b11111111111111111111111111111111 2!
b0 6!
b0 2!
b1010 1!
b1001 1!
b1000 1!
b111 1!
b110 1!
b101 1!
b11111111111111111111111111111111 2!
b1011001101111101 6!
b10000 7!
b0 2!
b1010 1!
b1001 1!
b1000 1!
b111 1!
b110 1!
b101 1!
b11111111111111111111111111111111 2!
b0 6!
b0 2!
b1010 1!
b1001 1!
b1000 1!
b111 1!
b110 1!
b101 1!
b11111111111111111111111111111111 2!
b1 7!
b0 2!
b1001 1!
b1000 1!
b111 1!
b110 1!
b101 1!
b11111111111111111111111111111111 2!
b0 2!
b1010 1!
b1001 1!
b1000 1!
b111 1!
b110 1!
b101 1!
b11111111111111111111111111111111 2!
b0 2!
b1101 1!
b1100 1!
b1011 1!
b1010 1!
b1001 1!
b1000 1!
b111 1!
b110 1!
b101 1!
b11111111111111111111111111111111 2!
b0 2!
b1110 1!
b1101 1!
b1100 1!
b1011 1!
b1010 1!
b1001 1!
b1000 1!
b111 1!
b110 1!
b101 1!
b11111111111111111111111111111111 2!
b0 2!
b100 1!
b11 1!
b10 1!
b1 1!
b0 1!
b1 6!
b1010 1!
b1001 1!
b1000 1!
b111 1!
b110 1!
b101 1!
b11111111111111111111111111111111 2!
b0 6!
b0 2!
b1010 1!
b1001 1!
b1000 1!
b111 1!
b110 1!
b101 1!
b11111111111111111111111111111111 2!
b1011001101111101 6!
b10000 7!
b0 2!
b1010 1!
b1001 1!
b1000 1!
b111 1!
b110 1!
b101 1!
b11111111111111111111111111111111 2!
b0 6!
b0 2!
b1010 1!
b1001 1!
b1000 1!
b111 1!
b110 1!
b101 1!
b11111111111111111111111111111111 2!
b1 7!
b0 2!
b1001 1!
b1000 1!
b111 1!
b110 1!
b101 1!
b11111111111111111111111111111111 2!
b0 2!
b1010 1!
b1001 1!
b1000 1!
b111 1!
b110 1!
b101 1!
b11111111111111111111111111111111 2!
b0 2!
b1101 1!
b1100 1!
b1011 1!
b1010 1!
b1001 1!
b1000 1!
b111 1!
b110 1!
b101 1!
b11111111111111111111111111111111 2!
b0 2!
b1110 1!
b1101 1!
b1100 1!
b1011 1!
b1010 1!
b1001 1!
b1000 1!
b111 1!
b110 1!
b101 1!
b11111111111111111111111111111111 2!
b100100010101010110000011011100 .!
b100100010101010110000011011111 .!
b100110 b!
#50
0"
0(
0*
0;
09
08
07
06
05
03
02
0/
0.
0,
#55
1"
1(
b10 G
#56
0!
0'
#60
0"
0(
#63
1!
1'
#64
1*
18
16
15
12
1-
1,
#65
1"
1(
#70
0!
0"
0(
0'
#75
1"
1(
#77
1!
1'
b11 E
b0 2!
b100 1!
b11 1!
b10 1!
b1 1!
b0 1!
b1 6!
b1010 1!
b1001 1!
b1000 1!
b111 1!
b110 1!
b101 1!
b11111111111111111111111111111111 2!
b0 6!
b0 2!
b1010 1!
b1001 1!
b1000 1!
b111 1!
b110 1!
b101 1!
b11111111111111111111111111111111 2!
b1100001001101000 6!
b10000 7!
b0 2!
b1010 1!
b1001 1!
b1000 1!
b111 1!
b110 1!
b101 1!
b11111111111111111111111111111111 2!
b0 6!
b0 2!
b1010 1!
b1001 1!
b1000 1!
b111 1!
b110 1!
b101 1!
b11111111111111111111111111111111 2!
b1 7!
b0 2!
b1001 1!
b1000 1!
b111 1!
b110 1!
b101 1!
b11111111111111111111111111111111 2!
b0 2!
b1010 1!
b1001 1!
b1000 1!
b111 1!
b110 1!
b101 1!
b11111111111111111111111111111111 2!
b0 2!
b1101 1!
b1100 1!
b1011 1!
b1010 1!
b1001 1!
b1000 1!
b111 1!
b110 1!
b101 1!
b11111111111111111111111111111111 2!
b0 2!
b1110 1!
b1101 1!
b1100 1!
b1011 1!
b1010 1!
b1001 1!
b1000 1!
b111 1!
b110 1!
b101 1!
b11111111111111111111111111111111 2!
b0 2!
b100 1!
b11 1!
b10 1!
b1 1!
b0 1!
b1 6!
b1010 1!
b1001 1!
b1000 1!
b111 1!
b110 1!
b101 1!
b11111111111111111111111111111111 2!
b0 6!
b0 2!
b1010 1!
b1001 1!
b1000 1!
b111 1!
b110 1!
b101 1!
b11111111111111111111111111111111 2!
b1100001001101000 6!
b10000 7!
b0 2!
b1010 1!
b1001 1!
b1000 1!
b111 1!
b110 1!
b101 1!
b11111111111111111111111111111111 2!
b0 6!
b0 2!
b1010 1!
b1001 1!
b1000 1!
b111 1!
b110 1!
b101 1!
b11111111111111111111111111111111 2!
b1 7!
b0 2!
b1001 1!
b1000 1!
b111 1!
b110 1!
b101 1!
b11111111111111111111111111111111 2!
b0 2!
b1010 1!
b1001 1!
b1000 1!
b111 1!
b110 1!
b101 1!
b11111111111111111111111111111111 2!
b0 2!
b1101 1!
b1100 1!
b1011 1!
b1010 1!
b1001 1!
b1000 1!
b111 1!
b110 1!
b101 1!
b11111111111111111111111111111111 2!
b0 2!
b1110 1!
b1101 1!
b1100 1!
b1011 1!
b1010 1!
b1001 1!
b1000 1!
b111 1!
b110 1!
b101 1!
b11111111111111111111111111111111 2!
#80
0"
0(
#84
0!
0'
#85
1"
1(
b11 G
#90
0"
0(
#91
1!
1'
b100 E
b0 2!
b10 1!
b1 1!
b0 1!
b1 6!
b1000 1!
b111 1!
b110 1!
b101 1!
b100 1!
b11 1!
b11111111111111111111111111111111 2!
b0 6!
b0 2!
b1000 1!
b111 1!
b110 1!
b101 1!
b100 1!
b11 1!
b11111111111111111111111111111111 2!
b1100001001101000 6!
b10000 7!
b0 2!
b1000 1!
b111 1!
b110 1!
b101 1!
b100 1!
b11 1!
b11111111111111111111111111111111 2!
b0 6!
b0 2!
b1000 1!
b111 1!
b110 1!
b101 1!
b100 1!
b11 1!
b11111111111111111111111111111111 2!
b1 7!
b0 2!
b111 1!
b110 1!
b101 1!
b100 1!
b11 1!
b11111111111111111111111111111111 2!
b0 2!
b1000 1!
b111 1!
b110 1!
b101 1!
b100 1!
b11 1!
b11111111111111111111111111111111 2!
b0 2!
b1011 1!
b1010 1!
b1001 1!
b1000 1!
b111 1!
b110 1!
b101 1!
b100 1!
b11 1!
b11111111111111111111111111111111 2!
b0 2!
b1100 1!
b1011 1!
b1010 1!
b1001 1!
b1000 1!
b111 1!
b110 1!
b101 1!
b100 1!
b11 1!
b11111111111111111111111111111111 2!
b110001 6!
b1000000 7!
b1001000000000000000000000000 8!
b0 2!
b1101 1!
b1100 1!
b1011 1!
b1010 1!
b1001 1!
b1000 1!
b111 1!
b110 1!
b101 1!
b100 1!
b11 1!
b11111111111111111111111111111111 2!
b10 6!
b100000 7!
b10000000000000000000000000 8!
b0 2!
b1000 1!
b111 1!
b110 1!
b101 1!
b100 1!
b11 1!
b11111111111111111111111111111111 2!
b0 2!
b11001 1!
b11000 1!
b10111 1!
b10110 1!
b10101 1!
b10100 1!
b10011 1!
b10010 1!
b10001 1!
b10000 1!
b1111 1!
b1110 1!
b1101 1!
b1100 1!
b1011 1!
b1010 1!
b1001 1!
b1000 1!
b111 1!
b110 1!
b101 1!
b100 1!
b11 1!
b11111111111111111111111111111111 2!
b0 2!
b11110 1!
b11101 1!
b11100 1!
b11011 1!
b11010 1!
b11001 1!
b11000 1!
b10111 1!
b10110 1!
b10101 1!
b10100 1!
b10011 1!
b10010 1!
b10001 1!
b10000 1!
b1111 1!
b1110 1!
b1101 1!
b1100 1!
b1011 1!
b1010 1!
b1001 1!
b1000 1!
b111 1!
b110 1!
b101 1!
b100 1!
b11 1!
b11111111111111111111111111111111 2!
b0 2!
b1100 1!
b1011 1!
b1010 1!
b1001 1!
b1000 1!
b111 1!
b110 1!
b101 1!
b100 1!
b11 1!
b11111111111111111111111111111111 2!
b100111 c!
b0 2!
b100 1!
b11 1!
b10 1!
b1 1!
b0 1!
b1 6!
b1 7!
b111000000000000000000000000 8!
b1010 1!
b1001 1!
b1000 1!
b111 1!
b110 1!
b101 1!
b11111111111111111111111111111111 2!
b0 6!
b0 2!
b1010 1!
b1001 1!
b1000 1!
b111 1!
b110 1!
b101 1!
b11111111111111111111111111111111 2!
b1100001001101000 6!
b10000 7!
b0 2!
b1010 1!
b1001 1!
b1000 1!
b111 1!
b110 1!
b101 1!
b11111111111111111111111111111111 2!
b0 6!
b0 2!
b1010 1!
b1001 1!
b1000 1!
b111 1!
b110 1!
b101 1!
b11111111111111111111111111111111 2!
b1 7!
b0 2!
b1001 1!
b1000 1!
b111 1!
b110 1!
b101 1!
b11111111111111111111111111111111 2!
b0 2!
b1010 1!
b1001 1!
b1000 1!
b111 1!
b110 1!
b101 1!
b11111111111111111111111111111111 2!
b0 2!
b1101 1!
b1100 1!
b1011 1!
b1010 1!
b1001 1!
b1000 1!
b111 1!
b110 1!
b101 1!
b11111111111111111111111111111111 2!
b0 2!
b1110 1!
b1101 1!
b1100 1!
b1011 1!
b1010 1!
b1001 1!
b1000 1!
b111 1!
b110 1!
b101 1!
b11111111111111111111111111111111 2!
b0 2!
b100 1!
b11 1!
b10 1!
b1 1!
b0 1!
b1 6!
b1010 1!
b1001 1!
b1000 1!
b111 1!
b110 1!
b101 1!
b11111111111111111111111111111111 2!
b0 6!
b0 2!
b1010 1!
b1001 1!
b1000 1!
b111 1!
b110 1!
b101 1!
b11111111111111111111111111111111 2!
b1100001001101000 6!
b10000 7!
b0 2!
b1010 1!
b1001 1!
b1000 1!
b111 1!
b110 1!
b101 1!
b11111111111111111111111111111111 2!
b0 6!
b0 2!
b1010 1!
b1001 1!
b1000 1!
b111 1!
b110 1!
b101 1!
b11111111111111111111111111111111 2!
b1 7!
b0 2!
b1001 1!
b1000 1!
b111 1!
b110 1!
b101 1!
b11111111111111111111111111111111 2!
b0 2!
b1010 1!
b1001 1!
b1000 1!
b111 1!
b110 1!
b101 1!
b11111111111111111111111111111111 2!
b0 2!
b1101 1!
b1100 1!
b1011 1!
b1010 1!
b1001 1!
b1000 1!
b111 1!
b110 1!
b101 1!
b11111111111111111111111111111111 2!
b0 2!
b1110 1!
b1101 1!
b1100 1!
b1011 1!
b1010 1!
b1001 1!
b1000 1!
b111 1!
b110 1!
b101 1!
b11111111111111111111111111111111 2!
b100100010101010110000011100011 .!
b100100010101010110000011101000 .!
b100111 b!
#92
0*
08
06
05
02
0-
0,
#95
1"
1(
b100 G
#98
0!
0'
#100
0"
0(
#105
1!
1"
1(
1'
#106
1*
1;
19
14
12
11
1/
1,
#110
0"
0(
#112
0!
0'
#115
1"
1(
